module novelda_api

go 1.21.1

require (
	github.com/alexedwards/argon2id v0.0.0-20230305115115-4b3c3280a736
	github.com/gorilla/sessions v1.2.1
	github.com/joho/godotenv v1.5.1
	github.com/labstack/echo-contrib v0.15.0
	github.com/labstack/echo/v4 v4.11.1
	gorm.io/driver/sqlite v1.5.3
	gorm.io/gorm v1.25.4
)

require (
	github.com/golang-jwt/jwt v3.2.2+incompatible // indirect
	github.com/gorilla/context v1.1.1 // indirect
	github.com/gorilla/securecookie v1.1.1 // indirect
	github.com/jackc/pgio v1.0.0 // indirect
	github.com/jackc/pgpassfile v1.0.0 // indirect
	github.com/jackc/pgservicefile v0.0.0-20221227161230-091c0ba34f0a // indirect
	github.com/jackc/pgtype v1.14.0 // indirect
	github.com/jackc/pgx/v5 v5.3.1 // indirect
	github.com/jinzhu/inflection v1.0.0 // indirect
	github.com/jinzhu/now v1.1.5 // indirect
	github.com/labstack/gommon v0.4.0 // indirect
	github.com/mattn/go-colorable v0.1.13 // indirect
	github.com/mattn/go-isatty v0.0.19 // indirect
	github.com/mattn/go-sqlite3 v1.14.17 // indirect
	github.com/valyala/bytebufferpool v1.0.0 // indirect
	github.com/valyala/fasttemplate v1.2.2 // indirect
	golang.org/x/crypto v0.11.0 // indirect
	golang.org/x/net v0.12.0 // indirect
	golang.org/x/sys v0.10.0 // indirect
	golang.org/x/text v0.11.0 // indirect
	golang.org/x/time v0.3.0 // indirect
	gorm.io/driver/postgres v1.5.2 // indirect
)
